%YAML 1.1
%TAG !u! tag:unity3d.com,2011:
--- !u!114 &11400000
MonoBehaviour:
  m_ObjectHideFlags: 0
  m_CorrespondingSourceObject: {fileID: 0}
  m_PrefabInstance: {fileID: 0}
  m_PrefabAsset: {fileID: 0}
  m_GameObject: {fileID: 0}
  m_Enabled: 1
  m_EditorHideFlags: 0
  m_Script: {fileID: 11500000, guid: 3425a00883b455f419eeff5e07daffbe, type: 3}
  m_Name: 11_Clubs
  m_EditorClassIdentifier: 
  cardName: Jack Clubs
  material: {fileID: -7763560668499937643, guid: 72c7f4daa0c75f144be8dd6e6b19061f, type: 3}
  value: 10
  matchCorrectAudio: {fileID: 0}
