%YAML 1.1
%TAG !u! tag:unity3d.com,2011:
--- !u!1 &8430490952256668154
GameObject:
  m_ObjectHideFlags: 0
  m_CorrespondingSourceObject: {fileID: 0}
  m_PrefabInstance: {fileID: 0}
  m_PrefabAsset: {fileID: 0}
  serializedVersion: 6
  m_Component:
  - component: {fileID: 8430490952256668101}
  m_Layer: 0
  m_Name: DeckPrefab
  m_TagString: Untagged
  m_Icon: {fileID: 0}
  m_NavMeshLayer: 0
  m_StaticEditorFlags: 0
  m_IsActive: 1
--- !u!4 &8430490952256668101
Transform:
  m_ObjectHideFlags: 0
  m_CorrespondingSourceObject: {fileID: 0}
  m_PrefabInstance: {fileID: 0}
  m_PrefabAsset: {fileID: 0}
  m_GameObject: {fileID: 8430490952256668154}
  m_LocalRotation: {x: 0, y: 0, z: 0, w: 1}
  m_LocalPosition: {x: 0.844, y: 0.688, z: -0.32999992}
  m_LocalScale: {x: 1, y: 1, z: 1}
  m_Children:
  - {fileID: 3695056295493470902}
  m_Father: {fileID: 0}
  m_RootOrder: 0
  m_LocalEulerAnglesHint: {x: 0, y: 0, z: 0}
--- !u!1001 &8430490951280034288
PrefabInstance:
  m_ObjectHideFlags: 0
  serializedVersion: 2
  m_Modification:
    m_TransformParent: {fileID: 8430490952256668101}
    m_Modifications:
    - target: {fileID: 5167991370161621830, guid: e938270ceb1652b4391ff13e7dd133fc, type: 3}
      propertyPath: m_RootOrder
      value: 0
      objectReference: {fileID: 0}
    - target: {fileID: 5167991370161621830, guid: e938270ceb1652b4391ff13e7dd133fc, type: 3}
      propertyPath: m_LocalScale.y
      value: 0.20000009
      objectReference: {fileID: 0}
    - target: {fileID: 5167991370161621830, guid: e938270ceb1652b4391ff13e7dd133fc, type: 3}
      propertyPath: m_LocalScale.z
      value: 0.20000009
      objectReference: {fileID: 0}
    - target: {fileID: 5167991370161621830, guid: e938270ceb1652b4391ff13e7dd133fc, type: 3}
      propertyPath: m_LocalPosition.x
      value: 0
      objectReference: {fileID: 0}
    - target: {fileID: 5167991370161621830, guid: e938270ceb1652b4391ff13e7dd133fc, type: 3}
      propertyPath: m_LocalPosition.y
      value: 0
      objectReference: {fileID: 0}
    - target: {fileID: 5167991370161621830, guid: e938270ceb1652b4391ff13e7dd133fc, type: 3}
      propertyPath: m_LocalPosition.z
      value: 0
      objectReference: {fileID: 0}
    - target: {fileID: 5167991370161621830, guid: e938270ceb1652b4391ff13e7dd133fc, type: 3}
      propertyPath: m_LocalRotation.w
      value: 0.7071068
      objectReference: {fileID: 0}
    - target: {fileID: 5167991370161621830, guid: e938270ceb1652b4391ff13e7dd133fc, type: 3}
      propertyPath: m_LocalRotation.x
      value: -0.7071068
      objectReference: {fileID: 0}
    - target: {fileID: 5167991370161621830, guid: e938270ceb1652b4391ff13e7dd133fc, type: 3}
      propertyPath: m_LocalRotation.y
      value: -0
      objectReference: {fileID: 0}
    - target: {fileID: 5167991370161621830, guid: e938270ceb1652b4391ff13e7dd133fc, type: 3}
      propertyPath: m_LocalRotation.z
      value: -0
      objectReference: {fileID: 0}
    - target: {fileID: 5167991370161621830, guid: e938270ceb1652b4391ff13e7dd133fc, type: 3}
      propertyPath: m_LocalEulerAnglesHint.x
      value: -90
      objectReference: {fileID: 0}
    - target: {fileID: 5167991370161621830, guid: e938270ceb1652b4391ff13e7dd133fc, type: 3}
      propertyPath: m_LocalEulerAnglesHint.y
      value: 0
      objectReference: {fileID: 0}
    - target: {fileID: 5167991370161621830, guid: e938270ceb1652b4391ff13e7dd133fc, type: 3}
      propertyPath: m_LocalEulerAnglesHint.z
      value: 0
      objectReference: {fileID: 0}
    - target: {fileID: 5544973931543581180, guid: e938270ceb1652b4391ff13e7dd133fc, type: 3}
      propertyPath: m_Name
      value: CardDeck
      objectReference: {fileID: 0}
    m_RemovedComponents: []
  m_SourcePrefab: {fileID: 100100000, guid: e938270ceb1652b4391ff13e7dd133fc, type: 3}
--- !u!4 &3695056295493470902 stripped
Transform:
  m_CorrespondingSourceObject: {fileID: 5167991370161621830, guid: e938270ceb1652b4391ff13e7dd133fc, type: 3}
  m_PrefabInstance: {fileID: 8430490951280034288}
  m_PrefabAsset: {fileID: 0}
